{
  "job":{
    "setting":{
      "speed":{
        "channel":1
      }
    },
    "content":[
      {
        "reader":{
          "name":"mysqlreader",
          "parameter":{
            "username":"sourceUser",
            "password":"sourcePwd",
            "connection":[
              {
                "jdbcUrl":[
                  "sourceJdbc"
                ],
                "querySql":[
                  "SELECT sys_code, thumbnail_id, thumbnail_url, image_id, image_url, feature_info, algo_version, gender_info, age_info, hairstyle_info, hat_info, glasses_info, race_info, mask_info, skin_info, pose_info, quality_info, target_rect, target_rect_float, land_mark_info, source_id, source_type, site, time, create_time, column1, column2, column3 FROM sourceTable WHERE 1=1"
                ]
              }
            ]
          }
        },
        "writer":{
          "name":"postgresqlwriter",
          "parameter":{
            "username":"sinkUser",
            "password":"sinkPwd",
            "column":[
              "sys_code",
              "thumbnail_id",
              "thumbnail_url",
              "image_id",
              "image_url",
              "feature_info",
              "algo_version",
              "gender_info",
              "age_info",
              "hairstyle_info",
              "hat_info",
              "glasses_info",
              "race_info",
              "mask_info",
              "skin_info",
              "pose_info",
              "quality_info",
              "target_rect",
              "target_rect_float",
              "land_mark_info",
              "source_id",
              "source_type",
              "site",
              "time",
              "create_time",
              "column1",
              "column2",
              "column3"
            ],
            "connection":[
              {
                "table":[
                  "sinkTable"
                ],
                "jdbcUrl":"sinkJdbc"
              }
            ]
          }
        }
      }
    ]
  }
}